G04 #@! TF.FileFunction,Profile,NP*
%FSLAX46Y46*%
G04 Gerber Fmt 4.6, Leading zero omitted, Abs format (unit mm)*
G04 Created by KiCad (PCBNEW 4.0.2+dfsg1-stable) date lun. 03 août 2020 11:16:49 CEST*
%MOMM*%
G01*
G04 APERTURE LIST*
%ADD10C,0.100000*%
%ADD11C,0.150000*%
G04 APERTURE END LIST*
D10*
D11*
X240665000Y-185420000D02*
X147955000Y-185420000D01*
X240665000Y-86360000D02*
X240665000Y-185420000D01*
X147955000Y-86360000D02*
X240665000Y-86360000D01*
X147955000Y-185420000D02*
X147955000Y-86360000D01*
M02*
